Bandschmieden der Schweiz
…
# add to df
city_genres %<>% mutate(ratio_round = temp_v)

# test should match up to 100 for each city
city_genres %>%
  group_by(band_city) %>%
  summarise(sum = sum(ratio_round))

## # A tibble: 25 x 2
##    band_city   sum
##        <chr> <dbl>
##  1     Aarau   100
##  2     Baden   100
##  3     Basel   100
##  4      Bern   100
##  5      Biel   100
##  6  Burgdorf   100
##  7      Chur   100
##  8  Delmont   100
##  9  Fribourg   100
## 10      Genf   100
## # ... with 15 more rows
…
